1 7 1e-14 824.15 455072.13
10 5 1e-14 1656.68 556139.51
100 62 1e-14 1348.45 53202.78
1001 4 1e-17 0.01 724182.96
1003 4 1e-17 0.5 746901.41
1004 16 1e-17 0.49 205156.06
1005 8 1e-17 0.93 371556.25
1006 4 1e-17 0.45 715850.9
1007 10 1e-17 0.99 312280.09
1008 4 1e-17 0.81 694748.64
1009 14 1e-17 0.01 230713.93
101 40 1e-14 3326.24 82409.36
1010 22 1e-17 0.99 147446.78
1011 7 1e-17 0.88 414322.19
1012 68 1e-17 0.03 47837.58
1013 6 1e-17 0.68 547438.04
1014 4 1e-17 0.96 784866.81
1015 4 1e-17 1.0 761423.65
1016 4 1e-17 0.47 742795.17
1017 13 1e-17 0.03 244573.53
1018 20 1e-17 0.91 160059.27
1019 13 1e-17 0.8 240589.93
102 4 1e-14 1553.92 791091.02
1020 9 1e-17 0.58 338851.43
1021 7 1e-17 0.39 432502.4
1022 5 1e-17 0.37 602658.21
1023 6 1e-17 0.57 499154.71
1024 13 1e-17 0.38 251576.53
1025 22 1e-17 0.42 146208.47
1026 6 1e-17 0.07 527371.34
1027 4 1e-17 0.2 707442.72
1028 5 1e-17 0.67 654506.2
1029 18 1e-17 0.6 180079.14
1030 40 1e-17 0.86 82302.78
1031 5 1e-17 0.77 637032.69
1032 24 1e-17 0.37 136229.38
1033 14 1e-17 0.87 233038.84
1034 4 1e-17 0.04 698701.42
1035 8 1e-17 0.43 370061.83
1036 4 1e-17 0.55 729545.66
1037 11 1e-17 0.63 293413.26
1038 12 1e-17 0.17 267198.5
1039 5 1e-17 0.97 563956.42
1040 26 1e-17 0.94 123042.17
1041 6 1e-17 0.98 526324.68
1042 18 1e-17 0.3 174189.13
1043 4 1e-17 0.51 704082.68
1044 4 1e-17 0.49 760574.36
1045 7 1e-17 0.26 457079.02
1046 7 1e-17 0.91 463962.54
1048 4 1e-17 0.34 738188.25
1049 7 1e-17 0.98 460885.68
105 24 1e-14 290.08 134338.44
1050 6 1e-17 0.29 519287.19
1051 8 1e-17 0.49 375034.35
1052 19 1e-17 0.45 168477.14
1053 10 1e-17 0.71 326812.19
1054 67 1e-17 0.21 49171.39
1055 4 1e-17 0.18 729837.88
1056 33 1e-17 0.71 99228.77
1057 4 1e-17 0.9 708998.88
1058 15 1e-17 0.09 219072.76
1059 5 1e-17 0.28 592962.33
1060 22 1e-17 0.65 146035.88
1061 6 1e-17 0.12 537679.8
1062 5 1e-17 0.81 585985.53
1063 8 1e-17 0.69 397704.71
1064 11 1e-17 0.22 278575.92
1065 8 1e-17 0.57 403469.85
1066 71 1e-17 0.39 45963.47
1067 8 1e-17 0.12 395478.13
1068 6 1e-17 0.68 499645.27
1069 36 1e-17 0.52 91537.35
1070 7 1e-17 0.47 416685.32
1071 7 1e-17 0.16 461625.24
1072 4 1e-17 0.76 776019.54
1073 9 1e-17 0.43 363077.12
1074 4 1e-17 0.25 697211.55
1075 5 1e-17 0.94 562594.4
1076 24 1e-17 0.8 132269.16
1077 24 1e-17 0.54 135801.67
1078 59 1e-17 0.03 55010.1
1079 15 1e-17 0.16 212668.19
1080 7 1e-17 0.49 421113.03
1081 12 1e-17 0.76 274254.46
1082 4 1e-17 0.39 794716.11
1083 7 1e-17 0.77 416805.56
1084 102 1e-17 0.99 32316.31
1085 4 1e-17 0.22 724355.45
1086 10 1e-17 0.4 327963.48
1087 4 1e-17 0.7 729653.84
1088 4 1e-17 0.66 692793.49
1089 5 1e-17 0.35 646638.19
1090 6 1e-17 0.8 521912.94
1091 11 1e-17 0.21 278334.41
1092 12 1e-17 0.26 255193.51
1093 6 1e-17 0.92 488453.59
1094 21 1e-17 0.1 154988.6
1095 4 1e-17 0.82 710899.02
1096 41 1e-17 0.57 79273.11
1097 7 1e-17 0.65 461765.48
1098 21 1e-17 1.0 156155.67
1099 43 1e-17 0.64 75483.3
11 16 1e-14 3681.29 199299.09
1100 6 1e-17 0.72 516081.39
12 14 1e-14 1737.12 220228.92
13 4 1e-14 1247.15 786274.26
14 63 1e-14 2867.48 51841.18
15 4 1e-14 3932.26 729063.45
16 26 1e-14 3111.7 123803.31
17 14 1e-14 3768.1 225123.39
18 53 1e-14 2897.66 62028.59
19 9 1e-14 2728.92 355133.86
2 20 1e-14 578.4 159061.04
20 5 1e-14 2600.74 628472.91
201 19 1e-14 7446.85 169687.64
202 54 1e-14 6464.47 60482.52
203 5 1e-14 6124.52 607890.54
204 19 1e-14 5934.47 171511.31
205 11 1e-14 4003.01 291751.3
206 5 1e-14 7867.07 603072.56
207 11 1e-14 5375.83 296667.89
208 10 1e-14 6503.66 322200.45
209 4 1e-14 7954.5 728308.14
21 7 1e-14 1708.29 451914.23
210 6 1e-14 4450.19 527381.81
211 4 1e-14 4740.8 767529.2
212 9 1e-14 6201.36 356763.41
213 7 1e-14 4131.34 417477.79
214 5 1e-14 4258.13 570478.13
215 17 1e-14 5596.09 186801.66
216 4 1e-14 4437.56 756295.07
217 18 1e-14 6110.1 175979.74
218 5 1e-14 4190.66 610449.94
219 6 1e-14 7316.0 511355.2
22 5 1e-14 1110.86 617401.41
220 12 1e-14 7634.26 272644.76
221 15 1e-14 5916.6 207483.42
222 8 1e-14 7860.7 372197.27
223 15 1e-14 4400.76 207140.27
224 7 1e-14 6547.89 433536.25
225 10 1e-14 6290.38 321050.62
226 8 1e-14 7119.11 382926.09
227 14 1e-14 5741.85 226913.45
228 4 1e-14 5855.88 742173.03
229 14 1e-14 4014.04 229928.55
23 11 1e-14 2884.91 278139.4
230 5 1e-14 6282.25 554189.94
231 63 1e-14 7776.79 52226.7
232 5 1e-14 5573.56 567080.11
233 47 1e-14 6667.88 69993.41
234 5 1e-14 5921.67 628527.48
235 6 1e-14 5398.13 515959.93
236 23 1e-14 6498.37 138222.82
237 18 1e-14 5924.63 178618.53
238 7 1e-14 6181.51 461299.56
239 5 1e-14 7945.42 652089.61
24 5 1e-14 907.8 551419.38
240 20 1e-14 4696.86 160172.8
242 11 1e-14 6814.45 286247.0
243 98 1e-14 6086.53 33339.94
244 10 1e-14 4583.42 314806.44
245 4 1e-14 5765.74 662028.99
246 52 1e-14 6474.3 63226.86
247 15 1e-14 7146.6 207825.99
248 25 1e-14 5935.9 128490.48
249 21 1e-14 7850.51 155202.6
25 47 1e-14 1286.14 70088.1
250 9 1e-14 5735.07 336065.55
251 19 1e-14 5286.11 168284.3
252 88 1e-14 5253.56 37458.31
253 5 1e-14 6369.76 598690.15
254 7 1e-14 6272.26 453136.17
255 8 1e-14 7976.51 387876.73
257 5 1e-14 5782.48 564997.97
258 7 1e-14 4635.96 467450.25
259 6 1e-14 6558.26 522591.44
26 21 1e-14 928.79 156082.98
260 5 1e-14 4570.38 641654.18
261 37 1e-14 7658.26 89104.16
262 8 1e-14 7980.78 405890.8
263 69 1e-14 5752.31 47584.85
264 5 1e-14 7626.56 616919.73
265 4 1e-14 5152.67 666809.1
266 10 1e-14 5608.32 312833.9
267 4 1e-14 6249.46 788910.1
268 12 1e-14 4418.72 262675.41
269 4 1e-14 5374.02 714523.47
27 6 1e-14 1881.81 531870.22
270 7 1e-14 4799.81 433921.71
271 7 1e-14 4464.44 453706.45
272 12 1e-14 4175.51 255498.16
273 5 1e-14 7200.81 569474.32
274 4 1e-14 6877.01 670414.42
275 5 1e-14 7734.8 603878.34
276 5 1e-14 5082.02 615391.45
277 17 1e-14 5970.03 191059.57
278 6 1e-14 4739.38 539870.68
279 25 1e-14 7151.01 129419.39
28 15 1e-14 3896.97 215425.53
280 7 1e-14 7131.72 427757.28
281 9 1e-14 5258.71 361589.82
282 4 1e-14 5751.24 705345.22
283 4 1e-14 7852.89 711155.53
284 123 1e-14 5655.17 26785.26
285 8 1e-14 7922.99 388715.72
286 13 1e-14 6125.5 249542.09
287 13 1e-14 6579.67 240525.97
288 4 1e-14 5395.18 789991.69
289 5 1e-14 7322.4 591733.13
29 118 1e-14 1376.84 27878.55
290 5 1e-14 7207.94 656075.2
291 13 1e-14 6030.83 241312.79
292 4 1e-14 7336.6 692817.39
293 6 1e-14 7419.23 519666.6
294 6 1e-14 4627.82 496932.63
296 50 1e-14 4292.21 65201.68
297 4 1e-14 4415.37 744117.39
298 30 1e-14 6582.49 106845.94
299 12 1e-14 7701.19 274079.78
3 8 1e-14 3179.78 401749.35
30 43 1e-14 2267.14 75243.56
300 11 1e-14 6094.44 298979.28
31 4 1e-14 3730.29 679744.91
32 5 1e-14 1074.32 573934.33
33 16 1e-14 3793.68 205155.31
34 8 1e-14 1785.1 388516.45
35 4 1e-14 3965.27 797701.41
36 6 1e-14 744.34 500867.07
37 4 1e-14 1810.74 663871.56
38 10 1e-14 100.94 316689.59
39 12 1e-14 3869.55 267995.05
4 5 1e-14 2741.35 559086.47
40 6 1e-14 1976.95 505828.5
41 7 1e-14 1645.43 442128.88
42 5 1e-14 2923.11 578337.37
43 5 1e-14 993.65 554845.27
44 4 1e-14 1933.3 794729.98
45 6 1e-14 1319.53 512208.42
46 30 1e-14 1163.29 106556.91
47 13 1e-14 3678.86 241166.6
48 4 1e-14 3051.74 724361.74
49 17 1e-14 1923.53 185487.89
5 25 1e-14 3306.38 127684.15
51 36 1e-14 1963.23 89445.14
52 14 1e-14 1746.61 231918.06
53 8 1e-14 527.54 371233.11
54 4 1e-14 2305.44 763897.24
55 6 1e-14 826.5 515214.3
56 5 1e-14 1805.68 573048.85
57 5 1e-14 1783.44 642527.2
58 61 1e-14 1932.06 53451.5
59 10 1e-14 2305.7 318495.5
6 6 1e-14 997.93 508821.87
60 4 1e-14 2905.71 786918.63
61 5 1e-14 3630.27 577603.91
62 14 1e-14 2331.21 233079.09
63 25 1e-14 686.41 128557.0
64 23 1e-14 210.83 137995.6
65 6 1e-14 1491.41 487032.29
66 5 1e-14 723.53 646380.93
67 7 1e-14 941.21 458951.97
68 19 1e-14 822.57 170139.63
69 4 1e-14 2161.23 755230.76
7 7 1e-14 3697.77 422530.83
70 42 1e-14 94.47 76763.02
71 14 1e-14 317.8 223186.18
72 10 1e-14 1004.03 310499.35
73 7 1e-14 3415.57 449725.15
74 14 1e-14 265.72 223704.88
75 17 1e-14 1135.54 193809.12
76 7 1e-14 2398.82 449278.94
77 7 1e-14 858.95 454635.62
78 11 1e-14 3445.65 277690.32
79 7 1e-14 1528.41 420348.78
8 5 1e-14 1849.38 571243.32
80 16 1e-14 609.81 201095.87
801 4 1e-14 54.47 680499.4
802 23 1e-14 59.05 143381.71
803 14 1e-14 15.18 233999.87
804 7 1e-14 9.14 426644.86
805 8 1e-14 87.71 386186.06
806 5 1e-14 74.85 591467.53
807 7 1e-14 78.54 417940.57
808 22 1e-14 50.7 149498.61
809 4 1e-14 34.05 736567.26
81 4 1e-14 1598.37 757342.93
810 4 1e-14 47.1 743895.89
811 4 1e-14 47.13 770634.51
812 12 1e-14 85.81 273324.57
813 7 1e-14 72.98 463351.96
814 5 1e-14 84.16 607778.13
815 5 1e-14 67.61 635216.94
816 5 1e-14 39.4 620828.46
817 4 1e-14 52.89 664174.4
818 4 1e-14 69.79 723720.15
819 6 1e-14 25.9 476930.24
82 5 1e-14 1388.06 566516.51
820 16 1e-14 35.18 194289.22
821 19 1e-14 77.01 172072.72
822 4 1e-14 61.49 679799.44
823 10 1e-14 14.98 310297.75
824 39 1e-14 30.86 83806.62
825 4 1e-14 53.06 667947.49
826 11 1e-14 7.6 298832.99
827 29 1e-14 28.3 113062.61
828 10 1e-14 4.59 325851.9
829 5 1e-14 4.59 641106.34
83 132 1e-14 382.89 24828.22
830 8 1e-14 48.1 405047.63
831 8 1e-14 29.15 403391.84
832 46 1e-14 75.85 71200.65
833 5 1e-14 9.18 617497.47
834 6 1e-14 58.12 536464.96
835 13 1e-14 57.94 251463.59
836 30 1e-14 85.5 107914.1
837 8 1e-14 6.58 367160.91
838 10 1e-14 98.67 310077.16
839 6 1e-14 71.25 526666.03
84 59 1e-14 2528.4 55457.84
841 17 1e-14 81.6 186722.24
842 4 1e-14 75.32 725107.49
843 28 1e-14 98.83 114206.65
844 10 1e-14 57.62 321892.66
845 6 1e-14 99.14 523686.24
846 9 1e-14 94.73 345578.1
847 51 1e-14 21.73 63858.32
848 4 1e-14 42.49 750871.44
849 7 1e-14 70.59 413181.01
85 5 1e-14 3388.46 659860.7
850 18 1e-14 60.99 175006.11
851 4 1e-14 34.63 683730.94
852 4 1e-14 12.71 792146.78
853 87 1e-14 1.35 37528.15
854 11 1e-14 5.42 289740.91
855 24 1e-14 93.21 137346.45
856 9 1e-14 48.47 350324.08
857 4 1e-14 34.39 670788.19
858 4 1e-14 78.19 744883.85
859 8 1e-14 28.59 393596.34
86 9 1e-14 2769.85 350156.24
860 5 1e-14 60.62 565481.43
861 12 1e-14 77.64 266868.19
862 5 1e-14 54.89 655384.26
863 5 1e-14 92.48 637286.24
864 6 1e-14 26.89 527178.24
865 8 1e-14 27.31 398988.14
866 55 1e-14 44.38 59643.76
867 4 1e-14 45.62 725164.73
868 4 1e-14 63.35 749436.35
869 5 1e-14 70.7 619169.48
87 8 1e-14 2152.75 384604.84
870 5 1e-14 33.41 630325.32
871 4 1e-14 59.21 686362.51
872 10 1e-14 27.26 309104.74
873 5 1e-14 20.84 551818.59
874 32 1e-14 24.77 100699.41
875 8 1e-14 21.84 381988.75
876 6 1e-14 77.68 529871.61
877 5 1e-14 51.94 639875.86
878 10 1e-14 36.91 302697.25
879 4 1e-14 41.37 746857.89
88 13 1e-14 1487.46 246115.41
880 7 1e-14 44.85 431884.48
882 6 1e-14 10.09 515889.47
884 21 1e-14 62.55 156861.27
885 4 1e-14 31.23 661347.0
886 25 1e-14 93.83 127735.4
887 10 1e-14 1.36 304494.2
888 6 1e-14 67.35 487406.85
889 12 1e-14 99.19 257027.07
89 44 1e-14 3524.48 73419.3
890 10 1e-14 93.29 318202.58
891 10 1e-14 26.13 320511.32
892 4 1e-14 89.08 708723.47
893 29 1e-14 92.09 111476.08
894 7 1e-14 67.76 464639.8
895 5 1e-14 9.35 602673.75
896 6 1e-14 75.7 486091.17
897 4 1e-14 49.32 797241.29
898 23 1e-14 50.82 143123.73
899 5 1e-14 40.14 556966.19
9 24 1e-14 2169.51 132049.29
90 14 1e-14 654.7 232615.35
91 103 1e-14 3241.95 31839.34
92 8 1e-14 3300.02 370951.2
93 11 1e-14 1488.71 290137.41
94 6 1e-14 2487.35 490857.12
95 4 1e-14 459.94 725276.0
96 11 1e-14 187.96 286950.68
97 4 1e-14 426.91 719877.86
98 21 1e-14 2228.34 154731.2
99 10 1e-14 2692.55 328066.63
