700000090.01331
700000270.01337
700000450.01361
700000510.01385
700000570.01367
700000630.01416
700000810.01428
700000870.01416
700000930.01434
700001170.01447
700001230.01440
700001290.01440
700001410.01453
700001530.01483
700001650.01477
700001830.01501
700002070.01520
700002130.01520
700002190.01544
700002250.01538
700002310.01550
700002430.01569
700002730.01593
700002790.01593
700003090.01605
700003450.01648
700003630.01666
700003990.01691
700004050.01691
700004170.01703
700004470.01740
700004830.01770
700005070.01764
700005430.01801
700005490.01788
700005550.01782
700005790.01807
700005910.01849
700005970.01837
700006090.01855
700006150.01849
700006270.01855
700006330.01862
700006570.01880
700006690.01892
700006870.01880
700006990.01910
700007110.01898
700007170.01892
700007230.01935
700007470.01923
700007590.01935
700007830.01959
700008130.01965
700008370.01990
700008430.01996
700008490.01990
700008670.01996
700008850.02008
700008970.02014
700009090.02002
700009150.02014
700009330.02002
700009570.02045
700009630.02039
700009690.02032
700009750.02057
700009810.02057
700009990.02045
700010110.02045
700010230.02057
700010410.02063
700010770.02075
700010950.02081
700011190.02094
700011310.02087
700011430.02094
700011550.02094
700011670.02118
700011730.02112
700011850.02100
700011910.02124
700011970.02100
700012030.02081
700012150.02112
700012210.02094
700012270.02118
700012330.02118
700012450.02112
700012570.02124
700012750.02094
700012870.02148
700013170.02130
700013230.02118
700013350.02155
700013410.02124
700013470.02142
700013530.02148
700013650.02112
700013770.02148
700013890.02167
700014070.02136
700014130.02142
700014190.02148
700014310.02136
700014430.02118
700014610.02130
700014670.02136
700014850.02081
700014910.02136
700014970.02142
700015210.02136
700015270.02142
700015570.02130
700015690.02124
700015750.02136
700015990.02118
700016050.02124
700016170.02118
700016290.02130
700016350.02118
700016410.02057
700016470.02094
700016590.02112
700016830.02106
700017190.02100
700017490.02118
700017550.02075
700017610.02100
700018030.02081
700018390.02081
700018690.02057
700018750.02020
700018870.02051
700018990.02045
700019110.02039
700019410.02026
700019530.02032
700019830.02002
700019950.02008
700020130.01978
700020310.01978
700020610.01984
700021450.01923
700021510.01929
700021630.01910
700022410.01868
700025110.01672
700025890.01611
700026310.01581
700027990.01410
700028050.01410
700028350.01379
700028470.01385
700029610.01233
700029670.01221
700029790.01257
700029850.01208
700030450.01196
700030870.01044
700030990.01111
700031650.01050
700031950.00989
700032010.00952
700032190.00958
700032550.00916
700032790.00909
700032970.00848
700033030.00873
700033210.00854
700033570.00818
700033810.00787
700033870.00781
700034050.00739
700034650.00690
700034890.00336
700035130.00616
700035370.00647
700035850.00580
700036390.00427
700036450.00476
700036570.00476
700042090.00024
700043529.99744
700043829.99713
700044129.99548
700045149.99487
700045209.99500
700046949.99390
700050009.99194
700051509.99078
700052589.99011
700054029.98969
700054629.98981
700054749.98950
700054929.98944
700055649.98981
700055949.98920
700056789.98901
700057389.98901
700057449.98969
700057569.98694
700057749.98938
700057869.98907
700057929.98920
700058949.98895
700059669.98987
700059789.98956
700059969.98975
700060209.98956
700060689.99005
700060749.98981
700061049.99188
700061229.98987
700061409.99011
700061589.99036
700061649.99005
700062129.99066
700062189.99091
700062249.99011
700062609.99023
700062669.99109
700062909.99078
700063029.99042
700063089.99060
700063209.99066
700063329.99048
700063389.99078
700063509.99097
700063869.99121
700063989.99078
700064109.99091
700064589.99121
700064709.99158
700064949.99176
700065069.99170
700065549.99231
700065669.99200
700066569.99268
700066629.99274
700066809.99286
700066929.99268
700067169.99329
700067529.99341
700068009.99359
700068849.99408
700069089.99585
700069209.99512
700069269.99426
700069389.99542
700069809.99524
700070049.99567
700070409.99573
700070529.99579
700070829.99609
700071009.99652
700071369.99701
700071489.99432
700071849.99744
700071969.99768
700072029.99738
700072089.99768
700072209.99786
700072389.99805
700072569.99774
700072989.99878
700073049.99841
700073229.99872
700073349.99872
700073409.99890
700073649.99921
700073949.99994
700074009.99976
700074189.99957
700074490.00006
700074610.00067
700074730.00043
700074790.00012
700075150.00031
700075270.00116
700075570.00128
700075750.00128
700075810.00159
700075930.00171
700075990.00159
700076170.00201
700076530.00238
700076710.00250
700076830.00244
700076890.00305
700077790.00403
700077910.00433
700078090.00439
700078330.00452
700079110.00519
700079410.00562
700079470.00562
700079530.00604
700079770.00610
700080130.00659
700080310.00690
700080430.00702
700080730.00714
700080910.00732
700081090.00775
700081270.00800
700081690.00836
700082110.00873
700082170.00879
700082290.00903
700082410.00897
700082530.00946
700082650.00934
700082770.00952
700082830.00995
700082950.01007
700083010.00995
700083070.00983
700083370.01025
700083490.01062
700083610.01056
700083670.01068
700083790.01086
700084030.01105
700084330.01123
700084390.01129
700084690.01184
700084750.01196
700084930.01196
700084990.01202
700085110.01215
700085170.01202
700085350.01215
700085530.01257
700085770.01318
700085830.01294
700085890.01282
700086190.01343
