700000090.01245
700000450.01373
700000510.01440
700000570.01349
700000810.01294
700000930.01337
700001410.01404
700001830.01501
700002310.01648
700002730.01544
700002790.01318
700003090.01654
700003270.01624
700003570.01550
700004050.01855
700004170.01538
700004410.01758
700005430.01837
700005490.01825
700005610.01843
700005910.01837
700006090.01874
700006450.01721
700006570.01868
700006690.01917
700006870.01874
700007110.01941
700007170.01947
700007230.01740
700007350.01965
700007590.01923
700007830.01898
700008130.01996
700008490.01984
700008670.02106
700008850.01978
700008970.02002
700009090.01978
700009150.02002
700009390.02051
700009570.02161
700009630.02051
700009690.02106
700009810.02142
700009990.02075
700010050.02008
700010230.02148
700010410.02051
700010770.02112
700011190.02136
700011310.02124
700011430.02155
700011670.01965
700011730.01843
700011910.02112
700011970.02112
700012150.02118
700012270.02063
700012330.02124
700012390.02155
700012450.02167
700012570.02155
700013170.02124
700013230.02179
700013290.02118
700013350.02112
700013410.02319
700013530.02191
700013770.02118
700014070.02344
700014130.02106
700014190.02124
700014310.02106
700014430.02173
700014670.02112
700014910.02081
700015030.02039
700015210.02112
700015510.02087
700015570.02356
700015690.02124
700015750.02161
700015810.02087
700015990.02197
700016050.02112
700016170.02222
700016230.02155
700016290.01917
700016350.02118
700016590.02136
700016830.02222
700017190.02106
700017550.02081
700017610.02026
700018030.01935
700018330.02026
700018390.02203
700018690.02100
700018810.02032
700018870.02094
700018990.01996
700019110.01978
700019170.02075
700019410.02032
700019530.02179
700019650.02051
700019770.02002
700019830.02039
700020070.02057
700020130.02039
700020250.02087
700020310.01837
700020430.02057
700020610.01910
700020670.01984
700020790.02002
700020910.02094
700020970.01978
700021270.01886
700021390.01959
700021450.01904
700021510.01855
700021570.01959
700021690.01807
700021870.01910
700021930.01953
700021990.01941
700022050.01862
700022230.01880
700022410.01807
700022530.01868
700022890.01929
700023010.01843
700023310.01807
700023670.01801
700023790.01782
700023910.01782
700024030.01721
700024090.01740
700024930.01697
700025110.01648
700025290.01733
700025830.01727
700025890.01569
700026310.01764
700027210.01501
700027330.01483
700028110.01379
700028650.01117
700029250.01208
700029790.01190
700030270.01160
700034110.00653
700049469.99066
700052589.98993
700054149.98969
700054749.98920
700054929.98999
700056429.98834
700057869.98871
700058889.98926
700059729.98932
700061229.98755
700061949.99396
700062909.99475
700063389.99054
700074009.99426
700074609.99854
700076530.00909
700076830.00262
700076890.00244
700077910.00385
700079110.00397
700079770.00586
700080130.00482
700080310.00659
700080430.00806
700080910.00769
700081030.00690
700081090.00818
700081270.00848
700082110.00977
700082290.00934
700082410.01007
700082650.01074
700084390.01160
700084690.01141
700084750.01154
700084870.01306
700085110.01178
700085170.01215
700085470.01312
700086190.01367
