H1,L1 0699999996.000000000  0700000124.000000000  120.000000000  0700000059.750000000  2.0350000000000000e+02  1.5000000000000000e+00  3.4900000000000000e+02  0.000000  0.224399  0  0.054515  374.000000  0.035532  0  2.5575226412307998e-03  5.6677380202797964e-03  7.4283156729348099e-03  4.3181002938858133e-03  1.0545994395490106e+85  2.3371028054012406e+85  9.9858383141656105e-03  9.9858383141656105e-03  1.1632319059132289e-06
H1,L1 0699999996.000000000  0700000124.000000000  120.000000000  0700000059.500000000  3.8550000000000000e+02  0.0000000000000000e+00  1.1000000000000000e+01  0.000000  0.314159  0  0.000432  12.000000  0.000099  0  9.0480600357729318e-06  1.5952730481493869e-05  1.8810047731377195e-05  1.1905377285656256e-05  8.4487942979004572e+82  1.4896158711934812e+83  2.7858107767150126e-05  2.7858107767150126e-05  2.4798624816752004e-10
H1,L1 0699999996.000000000  0700000124.000000000  120.000000000  0700000059.500000000  4.0600000000000000e+02  0.0000000000000000e+00  1.0000000000000000e+01  0.000000  0.628319  0  0.000453  11.000000  0.000090  0  1.2001098306513828e-05  1.4282529098060896e-05  1.3199964963538228e-05  1.0918534171991158e-05  3.2176422157846708e+83  3.8293219004089110e+83  2.5201063270052058e-05  2.5201063270052054e-05  1.9980995277587179e-10
H1,L1 0699999996.000000000  0700000124.000000000  120.000000000  0700000059.500000000  3.9650000000000000e+02  0.0000000000000000e+00  5.0000000000000000e+00  0.000000  0.044880  0  0.000243  6.000000  0.000056  0  7.0152644777126912e-06  9.0219031922654564e-06  8.7007346728706855e-06  6.6940959583179194e-06  4.1230216793645385e+82  5.3023663710775390e+82  1.5715999150583377e-05  1.5715999150583377e-05  1.7060168906563088e-10
H1,L1 0699999996.000000000  0700000124.000000000  120.000000000  0700000059.500000000  4.2750000000000000e+02  0.0000000000000000e+00  5.0000000000000000e+00  0.000000  0.269279  0  0.000211  6.000000  0.000033  0  2.1181687506593913e-06  5.0900629564834251e-06  7.0220652102859023e-06  4.0501710044618676e-06  7.2180147006593398e+81  1.7345241844277804e+82  9.1402339609452935e-06  9.1402339609452935e-06  5.8799387424151381e-11
H1,L1 0699999996.000000000  0700000124.000000000  120.000000000  0700000059.250000000  4.4150000000000000e+02  5.0000000000000000e-01  3.0000000000000000e+00  0.000000  0.000000  0  0.000158  5.000000  0.000031  0  2.7520857256334986e-06  4.2793062712180333e-06  5.8610796317873053e-06  4.3338590862027705e-06  2.0990642994057942e+82  3.2639023328640769e+82  8.6131653574208038e-06  8.6131653574208038e-06  4.6149134676049359e-11
