0700000059.750000 	sl 	1.167 	0.000 	110242573045248832683673567657059433265706061180520189422046244415409163014414404681728.000 	230244341262056361217007759180731828763955152307376031733391187501155758827343318089728.000 	-nan 	ratio 	1.077 	0.875 	218437645833478759546748843775771456877426798408322000964722570126785630075826995200.000 	1661545234469122152314255996152830726238455684000821180774747059399749328249192185856.000 	-nan 	logratio 	1.077 	0.875 	218437645833478759546748843775771456877426798408322000964722570126785630075826995200.000 	1661545234469122152314255996152830726238455684000821180774747059399749328249192185856.000 	-nan 	Tikhonov 	0.000 	0.000 	63991732036455109535533944732129436082965280310706319033756467113548696267887220883456.000 	143202601349819404278653501816791883308268373479106616196246558643550427692445334503424.000 	-nan 	cWb 	0.224 	0.000 	10545994395490106129240909816666925213915560367408394896202569169344925250550402908160.000 	23371028054012405514084336366310219886748479065008602929949884160807623165884332244992.000 	-nan
0700000059.500000 	sl 	2.064 	0.000 	289410764155811628711532130180404715642912997316258292950475126270670421366210035712.000 	433742033213490237116716254878303348560418389389119723325178103623326090520772476928.000 	-nan 	ratio 	5.430 	1.526 	1176907753028462961416892707395589478907091657139096902128929837039288096896581632.000 	7851725005788871782210351584576791529011104725570439282590811571826326320216801280.000 	-nan 	logratio 	5.430 	1.526 	1176907753028462961416892707395589478907091657139096902128929837039288096896581632.000 	7851725005788871782210351584576791529011104725570439282590811571826326320216801280.000 	-nan 	Tikhonov 	0.000 	0.000 	94662519574663532685323321792922538891405402509983507939565389234291568629424062464.000 	170232442609173550088366974042780221751003375072704033280174959422023585390552678400.000 	-nan 	cWb 	0.314 	0.000 	84487942979004572490463719252678518951857408235923087042281984630560376154807599104.000 	148961587119348116944543271406339173840378115855510146975870102401777975682287009792.000 	-nan
0700000059.500000 	sl 	2.962 	0.000 	395544630944844184968567303217029654029539494089920543454235360364740310838125002752.000 	400788968290544620182871559795106349656288605474472068035138248805264771391307120640.000 	-nan 	ratio 	5.790 	1.750 	42229467999837628782802391998387917843538572521846915641541216959412236042895360.000 	201026284502004411830582689796113400731463825688373859514434948469969244678782976.000 	-nan 	logratio 	5.790 	1.750 	42229467999837628782802391998387917843538572521846915641541216959412236042895360.000 	201026284502004411830582689796113400731463825688373859514434948469969244678782976.000 	-nan 	Tikhonov 	0.000 	0.000 	118826329777649360287734915787316632602183629969600619050058455137778393244787277824.000 	152697906961805666476094881855429036499509854998553254274692394630899358096196370432.000 	-nan 	cWb 	0.628 	0.000 	321764221578467077901193776544036583143931081179863793677976519046761513524200996864.000 	382932190040891100992270932821336013475764638131617420966692628438673357911042818048.000 	-nan
0700000059.500000 	sl 	0.539 	0.000 	217161964640206212679444455143074534924044513488750685301919586568131969647642673152.000 	265033706265089138379012646405273863220172843089637250502471470163149866729283256320.000 	-nan 	ratio 	2.154 	1.391 	10986897364263956935627673592985310629664771279510672883690087417757565476547854336.000 	36379696760736503804253153201145530544833527298766621158354064259860338492294823936.000 	-nan 	logratio 	0.763 	0.965 	172334048361264501294768875603590339607168884570773226444868859193798301130424320.000 	570646378508585280632847002846569121188929643649730189145330171613473999798927360.000 	-nan 	Tikhonov 	0.000 	0.000 	73948676118246056124372601524913785732758555358524721872114716442592080449448706048.000 	95457902098977619957865238750716586703876423931883048933154358743672022440901345280.000 	-nan 	cWb 	0.045 	0.000 	41230216793645384804964918681952761258799828081849369831275421125864068834335391744.000 	53023663710775390474149099861361522552281627681709432905678253304439200356310712320.000 	-nan
0700000059.500000 	sl 	4.353 	0.000 	34465836824601787552203958521981837188619823888592328741878188936820040273825366016.000 	78722713628516205039971377538500162459824073640313091343098433409161556443778777088.000 	-nan 	ratio 	0.853 	1.010 	44597105091142622921786893014948143129549085672561276372445408647331264231112704.000 	1059380398064472773708056861155227654651143303674022040204364468067078401503002624.000 	-nan 	logratio 	0.853 	1.010 	44597105091142622921786893014948143129549085672561276372445408647331264231112704.000 	1059380398064472773708056861155227654651143303674022040204364468067078401503002624.000 	-nan 	Tikhonov 	0.000 	0.000 	15849873643584880122193794460644079394854156662248291262184440399772794425765265408.000 	39327255359339687448716459149141381966431174753130104244877668691990507516403384320.000 	-nan 	cWb 	0.269 	0.000 	7218014700659339824571551605392894651339957134903772479302537892557652625515872256.000 	17345241844277803841006376170633545710583778202000544214525588423084604146812190720.000 	-nan
0700000059.250000 	sl 	3.635 	0.000 	64651199809964332297199232048438752747022694445230975142394428991226112653219856384.000 	80594032575461123519723459412098623992611087612398785962270683797945372935400194048.000 	-nan 	ratio 	2.603 	1.212 	6006472730813638691742661275101139705827287256075227946168984079784322153840640.000 	14708696768006192621682482464034606306902092378435564477684943881698411729125376.000 	-nan 	logratio 	2.603 	1.212 	6006472730813638691742661275101139705827287256075227946168984079784322153840640.000 	14708696768006192621682482464034606306902092378435564477684943881698411729125376.000 	-nan 	Tikhonov 	0.000 	0.000 	20990642994057942318904153892761845944421304173030009101325232522633888715996397568.000 	32639023328640769226184780260603261209917634754732094068831475574378844169628024832.000 	-nan 	cWb 	0.000 	0.000 	20990642994057942318904153892761845944421304173030009101325232522633888715996397568.000 	32639023328640769226184780260603261209917634754732094068831475574378844169628024832.000 	-nan
