1624 841741214 841753336 12122
1624 841753384 841767304 13920
1624 841767368 841767492 124
1625 841768445 841769445 1000
1625 841769448 841776920 7472
1625 841777048 841777405 357
1625 841777408 841777413 5
1626 841778150 841781572 3422
1627 841782125 841785080 2955
1627 841785128 841792468 7340
1628 841793908 841802392 8484
1628 841802456 841811064 8608
1628 841811120 841811494 374
1629 841812429 841820151 7722
1629 841820199 841827875 7676
1630 841829957 841833024 3067
1630 841833088 841842784 9696
1630 841842848 841849871 7023
1630 841849927 841863927 14000
1631 841864702 841865008 306
1631 841865056 841886865 21809
1631 841886913 841915480 28567
1631 841915485 841922214 6729
1632 841923763 841930053 6290
1633 841964060 841974264 10204
1633 841974311 841986014 11703
